Código de resolución para la tarea examen de Análisis Demográfico
…
Como se puede ver la preferencia digital es muy pequeña en ambos estados pero en ambos se registro que las mujeres tenían una mayor preferencia digital. Nuevamente, se trata de una preferencia tan baja que las diferencias entre hombres y mujeres también son muy sutiles.

3. Prorrateo de NE

Ahora tomaremos los NE que encontramos anteriormente y vamos a distribuirlos entre las edades. Primero quitaremos los NE y luego se los pegaremos en función al peso que tiene cada grupo, de esta manera, será proporcional.

 base_pror <- base_mx %>% 
    filter(is.na(age)== F) %>%  #quitamos los NE
    group_by(sex) %>%  
    mutate(prop = pob/sum(pob)) %>%  #la proporción de cada edad
    ungroup() %>% 
  mutate(id = paste(edo,sex, sep = "-"))
 base_pror

## # A tibble: 404 × 7
##    edo              age sex     pob   pob2    prop id                  
##    <chr>          <dbl> <chr> <dbl>  <dbl>   <dbl> <chr>               
##  1 Aguascalientes     0 males 11412 -11412 0.00622 Aguascalientes-males
##  2 Aguascalientes     1 males 11878 -11878 0.00648 Aguascalientes-males
##  3 Aguascalientes     2 males 12970 -12970 0.00707 Aguascalientes-males
##  4 Aguascalientes     3 males 13406 -13406 0.00731 Aguascalientes-males
##  5 Aguascalientes     4 males 13312 -13312 0.00726 Aguascalientes-males
##  6 Aguascalientes     5 males 13436 -13436 0.00732 Aguascalientes-males
##  7 Aguascalientes     6 males 13100 -13100 0.00714 Aguascalientes-males
##  8 Aguascalientes     7 males 13381 -13381 0.00729 Aguascalientes-males
##  9 Aguascalientes     8 males 13632 -13632 0.00743 Aguascalientes-males
## 10 Aguascalientes     9 males 12810 -12810 0.00698 Aguascalientes-males
## # ℹ 394 more rows
…
base_pror <- left_join(base_pror, nas, by="id")#los pegamos

base_pror <- base_pror %>% 
  mutate(pob_fin = pob+(pob_na*prop)) %>% 
  select(edo = edo.x, 
         age = age, 
         sex = sex.x,
         pob = pob_fin) %>% 
  mutate(pob = round(pob, digits = 0))#redondeamos a numeros enteros

rm(nas)
base_pror

## # A tibble: 404 × 4
##    edo              age sex     pob
##    <chr>          <dbl> <chr> <dbl>
##  1 Aguascalientes     0 males 11417
##  2 Aguascalientes     1 males 11883
##  3 Aguascalientes     2 males 12975
##  4 Aguascalientes     3 males 13411
##  5 Aguascalientes     4 males 13317
##  6 Aguascalientes     5 males 13441
##  7 Aguascalientes     6 males 13105
##  8 Aguascalientes     7 males 13386
##  9 Aguascalientes     8 males 13638
## 10 Aguascalientes     9 males 12815
## # ℹ 394 more rows
…
labels <- paste(bins[-length(bins)], #etiquetas
                bins[-1] - 1,
                sep = "-")

Después, creamos nuestros grupos quinquenales con group_by y summarise:

base_pror <- base_pror %>% #agregamos grupo de edad a la base
  mutate(age_group = cut(age, breaks = bins, labels = labels, right = F))

base_5 <- base_pror %>% 
  group_by(edo,sex,age_group) %>% 
  summarise(pob = sum(pob), .groups = "drop")
base_5

## # A tibble: 84 × 4
##    edo            sex     age_group   pob
##    <chr>          <chr>   <fct>     <dbl>
##  1 Aguascalientes females 0-4       61476
##  2 Aguascalientes females 5-9       64714
##  3 Aguascalientes females 10-14     63662
##  4 Aguascalientes females 15-19     65090
##  5 Aguascalientes females 20-24     63892
##  6 Aguascalientes females 25-29     60309
##  7 Aguascalientes females 30-34     55196
##  8 Aguascalientes females 35-39     51503
##  9 Aguascalientes females 40-44     48558
## 10 Aguascalientes females 45-49     44523
## # ℹ 74 more rows
…
#esta es la base de yuc
base_y_1 <- rbind(enframe(base_1_HY$fitted,
                          name = 'age', value = 'pob') %>%
                    mutate(age = c(0:109), sex = 'males',
                           .before = pob),
                  enframe(base_1_MY$fitted,
                          name = 'age', value = 'pob') %>%
                    mutate(age = c(0:109), sex = 'females',
                           .before = pob)) %>%
  mutate(pob2 = ifelse(sex == 'males', -pob, pob))

base_y_1

## # A tibble: 220 × 4
##      age sex      pob    pob2
##    <int> <chr>  <dbl>   <dbl>
##  1     0 males 17401. -17401.
##  2     1 males 17648. -17648.
##  3     2 males 17893. -17893.
##  4     3 males 18132. -18132.
##  5     4 males 18355. -18355.
##  6     5 males 18552. -18552.
##  7     6 males 18714. -18714.
##  8     7 males 18836. -18836.
##  9     8 males 18920. -18920.
## 10     9 males 18976. -18976.
## # ℹ 210 more rows

base_a_1

## # A tibble: 220 × 4
##      age sex      pob    pob2
##    <int> <chr>  <dbl>   <dbl>
##  1     0 males 12147. -12147.
##  2     1 males 12381. -12381.
##  3     2 males 12613. -12613.
##  4     3 males 12833. -12833.
##  5     4 males 13029. -13029.
##  6     5 males 13185. -13185.
##  7     6 males 13287. -13287.
##  8     7 males 13329. -13329.
##  9     8 males 13316. -13316.
## 10     9 males 13267. -13267.
## # ℹ 210 more rows
…
